{
  "form": {
    "attributes": {
      "action": "http://db:8888/register",
      "method": "post"
    },
    "buttons": {
      "submit": {
        "title": "Registrar"
      }
    }
  },
  "fields": {
    "reclamo": {
      "type": "textarea",
      "label": "Descripción del reclamo",
      "rows": 4,
      "cols": 60
    }
  }
}